HW 1: Анализ и улучшение авиаперевозок
…
## # A tibble: 54 × 2
##    aircraft         count_ticket
##    <chr>                   <int>
##  1 A340                        7
##  2 A380                        7
##  3 BOEING 777                  7
##  4 BOEING 777-300ER            7
##  5 AIRBUS A380                 6
##  6 BOEING 777-300              6
##  7 AIRBUS A320                 5
##  8 B747-400                    5
##  9 A330-300                    4
## 10 AIRBUS A330-300             4
## # … with 44 more rows
…
